1 10 20
100 200 125
201 210 89
900 1000 174
100 25 119
75 10 116
9999 10000 92
10000 9999 92
278242 841771 525
860552 438995 525
255179 682571 509
453708 524583 470
145040 229967 386
436847 253293 449
643765 948066 525
16330 912995 525
954050 44095 525
9650 863797 525
60465 382290 443
561 6525 262
561 55641 340
5714 45684 324
16841 68431 340
41684 544684 470
35466 146452 375
45647 578543 470
45646 46846 283
684651 7453 509
775 4894 238
4851 4985 210
5651 185135 383
4854 8624 262
4321 8494 262
56432 774 340
987 465 179
489 7895 262
640038 982212 525
215529 663428 509
751980 941932 525
828355 886713 525
690722 934951 525
844738 983930 507
49003 980969 525
688096 834935 504
853008 884140 432
510291 595457 470
500 2500 209
2500 500 209
15 684 145
156 468 144
486 6541 262
846 486 171
132 489 144
546 156 144
1578 9698 262
456 421 116
462 4789 238
621 4798 238
562 156 144
4895 4621 197
5462 4652 210
4864 4895 179
546 467 142
462 4879 238
489 4894 238
8496 4846 262
4865 489 238
643 489 142
6542 495 262
6564 4895 262
4893 489 238
123 48 119
48 63 113
431 455 116
123 187 125
760112 878869 525
618296 951965 525
462218 691187 509
213105 805803 509
653466 672766 442
864187 940024 507
343667 711501 509
243668 688732 509
769346 932106 525
888914 900366 370
620788 766882 509
340778 385430 441
559569 676824 509
263669 801807 509
691209 715448 504
323904 479343 449
356870 691174 509
139466 727353 509
639624 741972 504
656915 850531 525
671269 694984 442
790642 989574 525
958530 968999 414
59483 828091 509
212545 759071 509
278204 324289 389
184823 485731 449
362910 679793 509
855564 896770 445
361766 996295 525
441894 852676 525
43538 897210 525
852589 963480 507
747172 775576 468
467797 605793 470
646045 732479 504
464746 466248 369
450640 761845 509
971184 974907 383
228603 773235 509
749921 778932 468
215376 386827 443
290590 651310 509
906877 919525 476
363090 407690 436
149373 821509 509
309156 882167 525
990858 999582 440
827046 888252 525
424138 795192 509
487081 568778 470
8459 456 262
4651 1561 238
8944 4621 262
164 465 144
561 176 144
4789 478 238
62 178 125
799 492 171
461 479 129
651 461 145
95 178 125
498 4758 238
987 748 179
495 4756 238
9216 784 262
1525 495 182
484 487 142
652 456 145
155 47 122
498 47 144
162 1456 182
87915 71899 351
9854 4789 262
1621 1798 180
9541 789 262
654 454 145
85494 479 351
498 471 142
541 456 142
132 794 171
431 179 144
417819 198518 449
198551 159321 370
985125 192315 525
159531 159121 352
951312 195230 525
195319 198165 360
251651 154957 443
951614 956145 414
952614 195614 525
495492 984579 525
987749 498451 525
954951 197495 525
945447 495474 525
498561 164194 449
619411 419877 470
565484 494599 470
971956 197816 525
495115 498114 351
498496 168464 449
647891 164684 509
498744 645664 509
984586 498126 525
495431 194984 449
956176 498498 525
497849 494514 351
495615 498497 351
948151 461684 525
495161 646213 509
198745 641687 509
48 1651 182
15 6451 262
451 1615 182
71 1652 182
141 1641 182
16 165 122
1591 156 182
195 951 179
195 9517 262
6217 9516 260
2167 984 182
984 126 179
915 19 179
498 615 137
94 1981 182
195 156 125
165 849 171
15 194 125
1965 198 182
165 891 179
16 98 119
951 984 143
95 47 116
195 198 120
195 2159 182
198 516 144
15698 1981 276
1959 651 182
651 984 179
56411 41986 340
56115 4985 340
546 98 144
561 651 145
165 984 179
615 312 144
51698 165 324
165 13 122
951 132 179
156 984 179
1563 516 182
159 19 122
654 496 145
1650 165 182
965874 46512 525
6549 6451 200
65489 54641 335
165181 164 383
654612 645 509
4685 4985 210
65498 16 340
561874 46851 470
1626 491 182
615 126 144
197 4561 238
615 495 137
165 498 144
615 645 132
165 49 122
954 465 179
5461 165 238
6854 498 262
162 489 144
651 132 145
519 496 124
4659 4875 197
651 5894 238
1653 615 182
615 489 142
315 156 131
165 198 125
156 4968 238
132 489 144
132 4789 238
61 48 113
