679339 850654 525
405181 778025 509
220252 644983 509
963563 827810 525
680435 549023 509
809726 741628 468
733086 409001 509
617308 326635 470
346223 76482 443
239852 354954 441
67862 319434 443
156900 330746 443
695437 784136 504
386812 100665 443
575741 254406 470
763449 146471 509
872423 490768 525
767783 762854 375
885209 874581 432
555701 93989 470
908279 930753 476
429713 179120 449
174844 557565 470
764979 740512 424
150761 453265 449
318995 436293 449
812113 796470 406
929485 696279 525
569983 711035 509
836515 60628 509
190237 425951 449
252472 149121 443
396944 326962 441
347592 3211 443
845132 288956 525
518825 563405 452
801902 776845 468
666335 471374 509
184484 207510 373
214592 219128 386
569648 976525 525
783973 906910 525
410965 370783 449
743985 516932 509
978685 311713 525
360661 661842 509
471647 503750 426
888380 224838 525
341370 98781 443
750311 172562 509
115621 429694 449
901862 92472 525
912022 714818 525
577979 683087 509
391861 889868 525
887827 508560 525
120062 885208 525
139322 818245 509
169379 733566 509
351192 127485 443
335171 867019 525
141682 557544 470
511674 841904 525
70724 640674 509
621551 516491 452
556307 410523 470
987529 398584 525
686039 118610 509
188269 478900 449
601253 844365 525
250183 370924 441
643792 599229 509
492746 989076 525
124488 264543 443
466890 314437 449
397578 848519 525
204420 20860 383
906738 99291 525
430938 864237 525
6106 469063 449
485604 773778 509
653610 788673 504
438107 526556 470
524141 782324 509
296570 735223 509
696496 729047 504
259641 633650 509
830779 160469 509
681904 806408 504
671837 473672 509
793740 575377 509
789556 733484 468
245153 230392 443
698227 740282 504
227613 670738 509
884947 647382 525
268787 310439 407
820924 26378 509
792122 292635 509
729768 299275 509
186533 157018 370
743288 883025 525
441049 109162 449
88025 225098 386
365078 951694 525
114668 147947 375
37009 554686 470
307732 565765 470
402211 466218 449
894286 688682 525
876055 894007 445
308241 287530 389
398393 825078 509
560640 456605 470
632999 492876 509
516596 582343 452
908827 749810 525
185954 902564 525
59468 158159 383
397466 123988 443
533028 773329 509
645210 54948 509
16749 660918 509
471164 105759 449
348939 162587 443
479305 810938 509
675442 805703 504
964307 235494 525
648624 537807 509
181835 241752 443
963951 659320 525
487632 113708 449
682571 426616 509
929072 962622 507
597844 802369 509
385498 670632 509
369620 241311 441
22642 868340 525
272117 716833 509
651620 587939 509
179569 417579 449
564430 785100 509
848399 672988 525
555556 880920 525
645479 702931 442
133285 839459 525
619114 728933 509
374472 66907 443
212709 833134 509
482988 595173 470
980642 705998 525
874733 595722 525
381706 84931 443
531089 258699 470
97510 253338 443
437841 467932 444
351605 443313 449
158078 504142 449
389636 364970 436
975242 216685 525
621635 371653 470
586471 718436 509
924675 962551 507
26561 678917 509
257394 422947 449
359314 717521 509
47476 407170 443
685760 231712 509
779007 180473 509
187642 234320 443
828690 53437 509
249790 419580 449
878200 266132 525
186437 729281 509
164577 209150 373
734223 148463 509
421327 404764 449
268592 324277 407
610010 113829 470
650446 872219 525
445378 782710 509
716439 910627 525
276740 799374 509
688896 447390 509
103998 188910 383
200356 732051 509
378928 946169 525
202915 582017 470
770545 676802 504
763975 993302 525
257997 97869 443
637719 54301 509
755237 735339 424
545562 295284 470
968812 848180 507
299041 126868 443
343387 207352 443
255043 947427 525
759245 862912 525
105950 832452 509
111785 443595 449
676260 458106 509
25128 850563 525
222407 56739 386
730249 430713 509
713956 753871 424
572652 844750 525
712068 594183 509
705373 881434 525
755029 928285 525
270231 411732 449
610880 602564 403
773507 525266 509
363595 571150 470
421852 646342 509
