1 10 20
100 200 125
201 210 89
900 1000 174
327807 693758 509
617373 762292 509
86334 251721 443
339982 419324 449
860749 261305 525
495550 959105 525
276598 704887 509
591653 478804 470
325825 969242 525
396564 705125 509
734352 819341 468
295942 860567 525
255207 484696 449
692335 508031 509
175284 531147 470
669712 901038 525
807508 475998 509
105847 706662 509
750027 919154 525
548420 453750 470
766080 409280 509
790765 343195 509
768864 544097 509
454670 529816 470
403722 557122 470
521716 315703 470
400379 764555 509
377756 810014 509
40645 846006 525
638257 868435 525
991802 360927 525
608164 911404 525
58310 101602 351
982958 948192 458
757354 227788 509
794631 526147 509
955802 898389 507
793805 142496 509
753192 553996 509
575925 617973 447
384433 311696 441
513857 978855 525
303171 289614 371
56992 873298 525
985441 189844 525
364815 904419 525
446767 280612 449
549339 601481 434
85129 765308 509
238970 947437 525
933677 825085 525
606543 147964 470
915993 672166 525
777718 513718 509
191559 824545 509
131178 788980 509
810594 846277 525
107641 537561 470
669196 413978 509
968011 91151 525
805146 926899 525
84883 187844 383
398758 649908 509
402171 115309 443
35573 321046 443
345297 601686 470
890971 334584 525
826324 689773 504
50683 558813 470
157240 854117 525
938683 516334 525
794015 236061 509
259678 98306 443
616886 126982 470
150704 408232 443
878944 62136 525
147190 419051 449
25743 280427 443
855562 529179 525
832498 174688 509
229758 718308 509
661918 611983 509
658966 183122 509
963254 288608 525
728932 449216 509
208566 162340 373
75158 323290 443
653280 790391 504
209684 548402 470
339821 552058 470
514647 65492 470
271037 723333 509
527566 495263 470
75396 727488 509
964255 129546 525
616642 116596 470
401640 94170 443
444462 152697 449
453137 947720 525
590957 746558 509
261947 888043 525
322450 625633 470
456822 367530 449
593308 779102 509
899698 760823 525
382168 915695 525
54749 549625 470
902468 292953 525
743683 291839 509
257012 559275 470
469047 742254 509
530713 119761 470
197781 474278 449
36134 933577 525
478793 205588 449
540943 370667 470
868300 857415 388
826891 618381 509
209997 815689 509
263287 144054 443
917387 114361 525
530565 922199 525
615195 533883 452
811414 610238 509
117056 711917 509
316056 981091 525
261748 131493 443
305538 394806 441
777201 189947 509
8413 49902 324
79813 664611 509
710418 577502 509
633435 513098 509
254177 796413 509
33555 42397 324
933455 749515 525
909389 913525 476
276583 266866 407
173613 598685 470
339303 861644 525
429085 859791 525
327030 252320 407
541569 911745 525
873693 434305 525
131277 991385 525
558591 853967 525
438459 307200 449
853225 33483 525
724755 248517 509
62944 290166 443
415718 783394 509
132498 773008 509
266866 591481 470
714332 945365 525
245203 99389 443
376140 94724 443
293346 19851 443
1118 656863 509
309700 231627 407
523393 638239 509
855542 522811 525
22594 827777 509
642010 364097 509
212677 777705 509
331298 789965 509
37511 821820 509
325653 641857 509
188936 560595 470
925577 544380 525
192576 684883 509
91843 68093 351
442914 602647 470
339228 412725 449
828906 928291 525
263862 657041 509
671121 855137 525
905549 628676 525
632996 302002 509
162812 890259 525
196645 340056 443
307110 827862 509
668465 63832 509
689345 909788 525
822614 304758 509
792153 840303 525
464204 320799 449
209633 305478 443
780284 278803 509
177188 102495 383
62260 887501 525
97431 443022 449
147177 959233 525
200485 625994 470
941622 363811 525
868158 654722 525
664141 754399 504
533042 856715 525
367641 9396 443
566493 95116 470
423758 586635 470
148009 353191 443
781425 916594 525
124655 146036 375
448170 731356 509
95764 859504 525
757440 164274 509
56611 211257 383
839134 26698 525
813153 99558 509
45298 694900 509
493270 701117 509
984303 940231 458
958911 446716 525
83835 726280 509
519431 852809 525
73425 900678 525
133735 542945 470
497898 934298 525
559762 288710 470
449770 163880 449
514366 314895 470
795124 80740 509
383365 936863 525
414076 577064 470
740429 814404 468
717934 480943 509
344426 58971 443
64286 684551 509
612413 559843 434
528399 361990 470
873854 697520 525
794783 925618 525
304726 421703 449
296917 907339 525
407045 931726 525
778846 956285 525
833809 163449 509
671692 51277 509
641047 65713 509
49053 936855 525
115563 128817 336
793856 58564 509
79968 317997 443
556067 433808 470
12294 52070 324
84747 744217 509
785500 933908 525
915990 201286 525
305530 986076 525
282362 845536 525
1 999999 525
